(B,City_6_sub_18_sw_201,0,10.884841205,CircuitSwitcher_1_City_3_sub_10)
(B,City_1_sub_30_sw_201,0,16.3180787147,HMI_2_City_9_sub_12)
(B,City_3_sub_6_sw_201,0,22.156892473,City_9_sub_14_sw_200)
(B,City_3_sub_8_sw_200,0,26.9742284103,VoltageMeter_1_City_3_sub_1)
(B,City_8_sub_25_sw_201,0,42.748126974,HMI_2_City_6_sub_19)
(B,City_3_sub_10_sw_201,0,45.5377152795,HMI_2_City_3_sub_5)
(B,City_9_sub_12_sw_200,0,47.9599833206,CircuitSwitcher_0_City_7_sub_22)
(B,City_4_sub_24_sw_201,0,52.6438048543,Breaker_1_City_9_sub_13)
(B,City_3_sub_2_sw_200,0,64.6952491396,Breaker_0_City_3_sub_1)
(B,City_2_sub_29_sw_201,0,66.5690035772,HMI_2_City_6_sub_18)
(B,City_9_sub_11_sw_200,0,67.2930519801,CircuitSwitcher_0_City_3_sub_8)
(B,City_3_sub_10_sw_200,0,80.0262009989,VoltageMeter_1_City_3_sub_5)
(B,City_7_sub_20_sw_201,0,84.5276655546,Breaker_0_City_7_sub_21)
(B,City_7_sub_20_sw_201,0,84.5276655546,Breaker_0_City_7_sub_21)
(B,City_9_sub_12_sw_200,0,90.4122997538,CurrentMeter_1_City_7_sub_22)
(B,City_9_sub_14_sw_201,0,92.1354682088,CircuitSwitcher_0_City_0_sub_31)
(B,City_5_sub_27_sw_200,0,99.7292348978,ScadaServer_2_City_6_sub_16)
(B,City_3_sub_10_sw_201,0,103.393147605,ScadaServer_2_City_3_sub_10)
(B,City_7_sub_22_sw_200,0,106.491757229,HMI_2_City_6_sub_18)
(B,City_3_sub_8_sw_200,1,121.819372321,CurrentMeter_1_City_3_sub_3)
(B,City_3_sub_2_sw_200,0,121.93101459,Breaker_1_City_7_sub_20)
(B,City_9_sub_15_sw_200,0,137.633913335,CircuitSwitcher_1_City_7_sub_22)
(B,City_9_sub_15_sw_200,1,149.610545241,HMI_2_City_3_sub_3)
(B,City_9_sub_15_sw_200,1,149.610545241,HMI_2_City_3_sub_3)
(B,City_6_sub_18_sw_201,1,174.083600845,ScadaServer_2_City_3_sub_6)
(B,City_9_sub_11_sw_200,0,175.991882148,CircuitSwitcher_1_City_3_sub_7)
(B,City_3_sub_7_sw_200,0,183.845467715,City_5_sub_28_sw_201)
(B,City_6_sub_18_sw_201,2,192.191957221,Breaker_1_City_3_sub_7)
(B,City_9_sub_12_sw_200,1,194.05954202,City_3_sub_1_sw_200)
(B,City_8_sub_25_sw_201,1,195.023032815,CurrentMeter_1_City_3_sub_9)
(B,City_3_sub_3_sw_201,0,225.351662485,CurrentMeter_0_City_6_sub_18)
(B,City_3_sub_3_sw_201,0,225.351662485,CurrentMeter_0_City_6_sub_18)
(B,City_3_sub_10_sw_200,1,234.850776252,PowerTransformer_2_City_3_sub_2)
(B,City_3_sub_6_sw_200,0,237.64718882,City_3_sub_1_sw_200)
(B,City_9_sub_14_sw_201,1,239.841489859,Breaker_1_City_3_sub_5)
(B,City_3_sub_3_sw_201,1,252.181448114,City_4_sub_24_sw_200)
(B,City_3_sub_3_sw_201,1,252.181448114,City_4_sub_24_sw_200)
(B,City_9_sub_12_sw_200,1,264.97421071,VoltageMeter_0_City_3_sub_1)
(B,City_8_sub_25_sw_201,2,304.587763131,CircuitSwitcher_1_City_7_sub_21)
(B,City_7_sub_20_sw_201,1,306.798212457,PowerTransformer_2_City_9_sub_11)
(B,City_7_sub_20_sw_201,1,306.798212457,PowerTransformer_2_City_9_sub_11)
(B,City_3_sub_6_sw_201,0,349.531135563,City_0)
(B,City_9_sub_14_sw_201,2,349.776369362,ScadaServer_2_City_3_sub_2)
(B,City_9_sub_15_sw_200,2,353.09449776,VoltageMeter_1_City_9_sub_12)
(B,City_6_sub_18_sw_201,3,353.422577635,HistorianDB_2_City_9_sub_14)
(B,City_6_sub_18_sw_201,3,353.422577635,HistorianDB_2_City_9_sub_14)
(B,City_3_sub_10_sw_201,1,375.660408646,HistorianDB_2_City_9_sub_12)
(B,City_3_sub_2_sw_200,1,394.208299287,HistorianDB_2_City_3_sub_5)
(B,City_3_sub_10_sw_201,1,395.549628441,CurrentMeter_0_City_3_sub_6)
(B,City_3_sub_10_sw_201,1,395.549628441,CurrentMeter_0_City_3_sub_6)
(B,City_3_sub_10_sw_201,1,395.549628441,CurrentMeter_0_City_3_sub_6)
(B,City_3_sub_10_sw_200,2,420.564047022,PowerTransformer_2_City_3_sub_10)
(B,City_3_sub_6_sw_201,0,427.361324096,VoltageMeter_0_City_7_sub_21)
(B,City_2_sub_29_sw_201,1,443.626810364,CurrentMeter_0_City_2_sub_29)
(B,City_2_sub_29_sw_201,1,443.626810364,CurrentMeter_0_City_2_sub_29)
(B,City_9_sub_12_sw_200,2,449.60233196,ScadaServer_2_City_3_sub_7)
(B,City_9_sub_12_sw_200,2,449.60233196,ScadaServer_2_City_3_sub_7)
(B,City_6_sub_16_sw_200,0,475.949624063,Breaker_1_City_1_sub_30)
(B,City_7_sub_20_sw_201,2,493.465348329,City_6_sub_16_sw_201)
(B,City_3_sub_6_sw_200,1,499.629292785,HMI_2_City_9_sub_14)
(B,City_3_sub_3_sw_201,2,505.348310402,Breaker_1_City_2_sub_29)
(B,City_3_sub_3_sw_201,2,505.348310402,Breaker_1_City_2_sub_29)
(B,City_3_sub_3_sw_201,2,505.348310402,Breaker_1_City_2_sub_29)
(B,City_9_sub_11_sw_200,1,542.406787892,CurrentMeter_1_City_3_sub_5)
(B,City_5_sub_27_sw_200,1,543.014947623,City_2_sub_29_sw_201)
(B,City_5_sub_27_sw_200,1,543.014947623,City_2_sub_29_sw_201)
(B,City_3_sub_2_sw_200,2,558.341865848,Breaker_0_City_7_sub_21)
(B,City_3_sub_2_sw_200,2,558.341865848,Breaker_0_City_7_sub_21)
(B,City_9_sub_15_sw_200,3,573.759258599,City_6_sub_17_sw_201)
(B,City_2_sub_29_sw_201,2,578.122061764,CircuitSwitcher_0_City_3_sub_6)
(B,City_3_sub_6_sw_201,1,584.521234894,CurrentMeter_0_City_9_sub_11)
(B,City_3_sub_8_sw_200,2,603.32647374,City_5_sub_28_sw_201)
(B,City_3_sub_7_sw_200,1,607.751702556,Breaker_1_City_9_sub_13)
(B,City_3_sub_10_sw_200,3,618.258624358,HistorianDB_2_City_3_sub_1)
(B,City_9_sub_12_sw_200,2,626.307101312,VoltageMeter_1_City_3_sub_7)
(B,City_3_sub_10_sw_200,0,648.956565878,Breaker_1_City_8_sub_25)
(B,City_3_sub_10_sw_200,0,648.956565878,Breaker_1_City_8_sub_25)
(B,City_6_sub_18_sw_201,4,670.1282496,Breaker_1_City_2_sub_29)
(B,City_6_sub_18_sw_201,4,670.1282496,Breaker_1_City_2_sub_29)
(B,City_3_sub_6_sw_201,1,692.400001035,City_6_sub_17_sw_200)
(B,City_9_sub_12_sw_200,3,693.422325386,HistorianDB_2_City_9_sub_13)
(B,City_2_sub_29_sw_201,3,697.815662151,HistorianDB_2_City_6_sub_18)
(B,City_2_sub_29_sw_201,3,697.815662151,HistorianDB_2_City_6_sub_18)
(B,City_2_sub_29_sw_201,3,697.815662151,HistorianDB_2_City_6_sub_18)
(B,City_2_sub_29_sw_201,3,697.815662151,HistorianDB_2_City_6_sub_18)
(B,City_2_sub_29_sw_201,3,697.815662151,HistorianDB_2_City_6_sub_18)
(B,City_4_sub_24_sw_201,1,736.723978045,VoltageMeter_1_City_8_sub_26)
(B,City_3_sub_6_sw_201,1,737.990728831,CircuitSwitcher_1_City_4_sub_23)
(B,City_3_sub_6_sw_201,2,755.320286295,Breaker_0_City_3_sub_6)
(B,City_3_sub_6_sw_201,2,755.320286295,Breaker_0_City_3_sub_6)
(B,City_1_sub_30_sw_200,0,765.660753752,CircuitSwitcher_0_City_5_sub_27)
(B,City_8_sub_25_sw_201,3,769.318340619,VoltageMeter_0_City_3_sub_10)
(B,City_7_sub_20_sw_201,3,839.544459084,CurrentMeter_0_City_3_sub_8)
(B,City_3_sub_2_sw_200,1,856.322420217,PowerTransformer_2_City_7_sub_21)
(B,City_3_sub_2_sw_200,1,856.322420217,PowerTransformer_2_City_7_sub_21)
(B,City_9_sub_11_sw_200,1,907.641624842,CurrentMeter_1_City_8_sub_26)
(B,City_5_sub_27_sw_200,2,909.462151748,CircuitSwitcher_1_City_6_sub_18)
(B,City_5_sub_27_sw_200,2,909.462151748,CircuitSwitcher_1_City_6_sub_18)
(B,City_5_sub_27_sw_200,2,909.462151748,CircuitSwitcher_1_City_6_sub_18)
(B,City_5_sub_27_sw_200,2,909.462151748,CircuitSwitcher_1_City_6_sub_18)
(B,City_3_sub_6_sw_200,2,951.399868994,CurrentMeter_0_City_7_sub_20)
(B,City_9_sub_12_sw_201,0,959.31959908,Breaker_1_City_5_sub_28)
(B,City_9_sub_12_sw_201,0,959.31959908,Breaker_1_City_5_sub_28)
(B,City_9_sub_12_sw_201,0,959.31959908,Breaker_1_City_5_sub_28)
(B,City_9_sub_12_sw_201,0,959.31959908,Breaker_1_City_5_sub_28)
(B,City_9_sub_12_sw_201,0,959.31959908,Breaker_1_City_5_sub_28)
(B,City_9_sub_12_sw_201,0,959.31959908,Breaker_1_City_5_sub_28)
(B,City_7_sub_22_sw_200,1,1024.50715971,VoltageMeter_0_City_6_sub_16)
(B,City_7_sub_22_sw_200,1,1024.50715971,VoltageMeter_0_City_6_sub_16)
(B,City_7_sub_22_sw_200,1,1024.50715971,VoltageMeter_0_City_6_sub_16)
(B,City_9_sub_15_sw_200,4,1055.00363169,Breaker_1_City_6_sub_16)
(B,City_9_sub_15_sw_200,4,1055.00363169,Breaker_1_City_6_sub_16)
(B,City_9_sub_15_sw_200,4,1055.00363169,Breaker_1_City_6_sub_16)
(B,City_6_sub_16_sw_200,1,1079.60202379,CurrentMeter_0_City_3_sub_1)
(B,City_3_sub_10_sw_201,2,1089.7728141,PowerTransformer_2_City_8_sub_26)
(B,City_3_sub_10_sw_201,2,1089.7728141,PowerTransformer_2_City_8_sub_26)
(B,City_3_sub_10_sw_201,2,1089.7728141,PowerTransformer_2_City_8_sub_26)
(B,City_3_sub_10_sw_201,2,1089.7728141,PowerTransformer_2_City_8_sub_26)
(B,City_3_sub_10_sw_201,2,1089.7728141,PowerTransformer_2_City_8_sub_26)
(B,City_3_sub_10_sw_201,2,1089.7728141,PowerTransformer_2_City_8_sub_26)
(B,City_3_sub_10_sw_201,2,1089.7728141,PowerTransformer_2_City_8_sub_26)
(B,City_3_sub_10_sw_201,2,1089.7728141,PowerTransformer_2_City_8_sub_26)
(B,City_3_sub_10_sw_201,2,1261.21114284,CurrentMeter_1_City_3_sub_8)
(B,City_9_sub_11_sw_200,2,1281.27834694,CurrentMeter_1_City_8_sub_25)
(B,City_3_sub_2_sw_200,3,1295.70470649,City_2_sub_29_sw_200)
(B,City_3_sub_2_sw_200,3,1295.70470649,City_2_sub_29_sw_200)
(B,City_3_sub_2_sw_200,3,1295.70470649,City_2_sub_29_sw_200)
(B,City_3_sub_2_sw_200,3,1295.70470649,City_2_sub_29_sw_200)
(B,City_3_sub_2_sw_200,3,1295.70470649,City_2_sub_29_sw_200)
(B,City_3_sub_2_sw_200,3,1295.70470649,City_2_sub_29_sw_200)
(B,City_3_sub_2_sw_200,3,1295.70470649,City_2_sub_29_sw_200)
(B,City_3_sub_2_sw_200,3,1295.70470649,City_2_sub_29_sw_200)
(B,City_3_sub_2_sw_200,3,1295.70470649,City_2_sub_29_sw_200)
(B,City_3_sub_2_sw_200,3,1295.70470649,City_2_sub_29_sw_200)
(B,City_3_sub_2_sw_200,3,1295.70470649,City_2_sub_29_sw_200)
(B,City_3_sub_2_sw_200,3,1295.70470649,City_2_sub_29_sw_200)
(B,City_3_sub_2_sw_200,3,1295.70470649,City_2_sub_29_sw_200)
(B,City_3_sub_2_sw_200,3,1295.70470649,City_2_sub_29_sw_200)
(B,City_6_sub_17_sw_201,0,1752.62714182,Breaker_0_City_3_sub_2)
(B,City_6_sub_17_sw_201,0,1752.62714182,Breaker_0_City_3_sub_2)
(B,City_6_sub_17_sw_201,0,1752.62714182,Breaker_0_City_3_sub_2)
(B,City_9_sub_14_sw_201,3,1799.44868459,CurrentMeter_0_City_3_sub_6)
(B,City_9_sub_14_sw_201,3,1799.44868459,CurrentMeter_0_City_3_sub_6)
(B,City_9_sub_14_sw_201,3,1799.44868459,CurrentMeter_0_City_3_sub_6)
(B,City_9_sub_14_sw_201,3,1799.44868459,CurrentMeter_0_City_3_sub_6)
(B,City_9_sub_14_sw_201,3,1799.44868459,CurrentMeter_0_City_3_sub_6)
(B,City_9_sub_14_sw_201,3,1799.44868459,CurrentMeter_0_City_3_sub_6)
(B,City_3_sub_3_sw_201,3,2019.19217105,CircuitSwitcher_1_City_3_sub_4)
(B,City_3_sub_3_sw_201,3,2019.19217105,CircuitSwitcher_1_City_3_sub_4)
(B,City_1_sub_30_sw_201,1,2034.93157988,CircuitSwitcher_0_City_9_sub_11)
(B,City_1_sub_30_sw_201,1,2034.93157988,CircuitSwitcher_0_City_9_sub_11)
(B,City_1_sub_30_sw_201,1,2034.93157988,CircuitSwitcher_0_City_9_sub_11)
(B,City_1_sub_30_sw_201,1,2034.93157988,CircuitSwitcher_0_City_9_sub_11)
(B,City_1_sub_30_sw_201,1,2034.93157988,CircuitSwitcher_0_City_9_sub_11)
(B,City_1_sub_30_sw_201,1,2034.93157988,CircuitSwitcher_0_City_9_sub_11)
(B,City_1_sub_30_sw_201,1,2034.93157988,CircuitSwitcher_0_City_9_sub_11)
(B,City_1_sub_30_sw_201,1,2034.93157988,CircuitSwitcher_0_City_9_sub_11)
(B,City_1_sub_30_sw_201,1,2034.93157988,CircuitSwitcher_0_City_9_sub_11)
(B,City_1_sub_30_sw_201,1,2034.93157988,CircuitSwitcher_0_City_9_sub_11)
(B,City_1_sub_30_sw_201,1,2034.93157988,CircuitSwitcher_0_City_9_sub_11)
(B,City_1_sub_30_sw_201,1,2034.93157988,CircuitSwitcher_0_City_9_sub_11)
(B,City_1_sub_30_sw_201,1,2034.93157988,CircuitSwitcher_0_City_9_sub_11)
(B,City_1_sub_30_sw_201,1,2034.93157988,CircuitSwitcher_0_City_9_sub_11)
(B,City_1_sub_30_sw_201,1,2034.93157988,CircuitSwitcher_0_City_9_sub_11)
(B,City_1_sub_30_sw_201,1,2034.93157988,CircuitSwitcher_0_City_9_sub_11)
(B,City_1_sub_30_sw_201,1,2034.93157988,CircuitSwitcher_0_City_9_sub_11)
(B,City_1_sub_30_sw_201,1,2034.93157988,CircuitSwitcher_0_City_9_sub_11)
(B,City_1_sub_30_sw_201,1,2034.93157988,CircuitSwitcher_0_City_9_sub_11)
(B,City_1_sub_30_sw_201,1,2034.93157988,CircuitSwitcher_0_City_9_sub_11)
(B,City_1_sub_30_sw_201,1,2034.93157988,CircuitSwitcher_0_City_9_sub_11)
(B,City_1_sub_30_sw_201,1,2034.93157988,CircuitSwitcher_0_City_9_sub_11)
(B,City_1_sub_30_sw_201,1,2034.93157988,CircuitSwitcher_0_City_9_sub_11)
(B,City_1_sub_30_sw_201,1,2034.93157988,CircuitSwitcher_0_City_9_sub_11)
(B,City_1_sub_30_sw_201,1,2034.93157988,CircuitSwitcher_0_City_9_sub_11)
(B,City_1_sub_30_sw_201,1,2034.93157988,CircuitSwitcher_0_City_9_sub_11)
(B,City_1_sub_30_sw_201,1,2034.93157988,CircuitSwitcher_0_City_9_sub_11)
