(B,City_23_sub_23_sw_200,0,8.19751795846,Breaker_0_City_21_sub_30)
(B,City_7_sub_28_sw_200,0,15.1142005678,VoltageMeter_0_City_6_sub_17)
(B,City_1_sub_41_sw_201,0,22.156892473,HMI_2_City_9_sub_13)
(B,City_23_sub_23_sw_200,1,24.2583377196,VoltageMeter_0_City_17_sub_24)
(B,City_11_sub_36_sw_201,0,39.5601133434,PowerTransformer_2_City_19_sub_9)
(B,City_11_sub_36_sw_201,1,45.4249760254,CircuitSwitcher_1_City_12_sub_31)
(B,City_9_sub_13_sw_200,0,54.3901385101,HistorianDB_2_City_2_sub_26)
(B,City_3_sub_20_sw_200,0,61.0629415289,City_5_sub_27_sw_201)
(B,City_23_sub_23_sw_200,2,71.8579641808,Breaker_0_City_9_sub_11)
(B,City_8_sub_35_sw_201,0,74.6416955161,CircuitSwitcher_1_City_6_sub_18)
(B,City_19_sub_4_sw_200,0,82.7684476642,CircuitSwitcher_1_City_19_sub_1)
(B,City_3_sub_20_sw_201,0,85.6815131655,VoltageMeter_0_City_5_sub_27)
(B,City_3_sub_20_sw_201,0,85.6815131655,VoltageMeter_0_City_5_sub_27)
(B,City_1_sub_41_sw_201,1,97.3295156145,VoltageMeter_1_City_19_sub_5)
(B,City_6_sub_18_sw_201,0,99.6235615968,VoltageMeter_1_City_10_sub_22)
(B,City_14_sub_29_sw_201,0,107.549270793,City_9_sub_14_sw_200)
(B,City_23_sub_23_sw_200,0,121.882176765,CircuitSwitcher_1_City_19_sub_6)
(B,City_18_sub_38_sw_200,0,122.332746446,HMI_2_City_19_sub_5)
(B,City_22_sub_32_sw_200,0,125.083661227,CircuitSwitcher_1_City_20_sub_42)
(B,City_1_sub_41_sw_201,2,126.739812021,City_23_sub_23_sw_201)
(B,City_16_sub_37_sw_200,0,162.184556868,CurrentMeter_0_City_24_sub_33)
(B,City_3_sub_20_sw_200,1,165.027457189,PowerTransformer_2_City_14_sub_29)
(B,City_19_sub_4_sw_200,1,170.146732223,PowerTransformer_2_City_7_sub_28)
(B,City_14_sub_29_sw_200,0,197.326232196,CircuitSwitcher_1_City_19_sub_10)
(B,City_21_sub_30_sw_200,0,197.694577337,City_18_sub_38_sw_201)
(B,City_12_sub_31_sw_201,0,210.428779634,Breaker_1_City_17_sub_24)
(B,City_10_sub_21_sw_201,0,213.866308398,ScadaServer_2_City_19_sub_3)
(B,City_15_sub_25_sw_201,0,217.014227389,ScadaServer_2_City_0_sub_40)
(B,City_9_sub_12_sw_201,0,220.613460974,PowerTransformer_2_City_16_sub_37)
(B,City_9_sub_14_sw_200,0,220.66476084,VoltageMeter_0_City_22_sub_32)
(B,City_9_sub_12_sw_201,1,222.853589635,CircuitSwitcher_1_City_10_sub_21)
(B,City_2_sub_26_sw_200,0,225.136817503,VoltageMeter_1_City_19_sub_1)
(B,City_14_sub_29_sw_200,1,227.272664458,City_9_sub_15_sw_201)
(B,City_14_sub_29_sw_200,1,227.272664458,City_9_sub_15_sw_201)
(B,City_22_sub_32_sw_200,1,250.958484215,CurrentMeter_1_City_9_sub_15)
(B,City_22_sub_32_sw_200,1,250.958484215,CurrentMeter_1_City_9_sub_15)
(B,City_22_sub_32_sw_200,1,250.958484215,CurrentMeter_1_City_9_sub_15)
(B,City_3_sub_20_sw_201,1,261.673395313,Breaker_0_City_19_sub_8)
(B,City_14_sub_29_sw_200,2,265.449774444,PowerTransformer_2_City_19_sub_9)
(B,City_3_sub_20_sw_200,0,268.613156206,CurrentMeter_1_City_20_sub_42)
(B,City_16_sub_37_sw_201,0,277.833452736,City_19_sub_3_sw_200)
(B,City_8_sub_35_sw_201,1,280.802311768,VoltageMeter_0_City_19_sub_8)
(B,City_14_sub_29_sw_201,1,282.372281779,City_0_sub_40_sw_201)
(B,City_21_sub_30_sw_200,1,288.10687709,CircuitSwitcher_0_City_16_sub_37)
(B,City_6_sub_18_sw_201,1,290.720308779,Breaker_1_City_2_sub_26)
(B,City_24_sub_33_sw_200,0,305.064799128,CurrentMeter_1_City_0_sub_40)
(B,City_24_sub_33_sw_200,0,305.064799128,CurrentMeter_1_City_0_sub_40)
(B,City_3_sub_20_sw_201,2,322.056756778,CircuitSwitcher_0_City_17_sub_24)
(B,City_13_sub_39_sw_200,0,325.470586277,HistorianDB_2_City_9_sub_15)
(B,City_13_sub_39_sw_200,1,333.823659408,CurrentMeter_1_City_0_sub_40)
(B,City_19_sub_7_sw_201,0,338.725421251,VoltageMeter_0_City_3_sub_19)
(B,City_19_sub_4_sw_200,0,339.143399014,City_22_sub_32_sw_201)
(B,City_10_sub_21_sw_201,1,341.549041812,HMI_2_City_19_sub_7)
(B,City_10_sub_21_sw_201,1,341.549041812,HMI_2_City_19_sub_7)
(B,City_13_sub_39_sw_201,0,344.766761663,City_19_sub_8_sw_201)
(B,City_18_sub_38_sw_201,0,346.772699436,City_20)
(B,City_14_sub_29_sw_200,3,354.744917859,City_10)
(B,City_14_sub_29_sw_200,3,354.744917859,City_10)
(B,City_18_sub_38_sw_200,1,370.557115127,HistorianDB_2_City_19_sub_2)
(B,City_1_sub_41_sw_200,0,376.640326538,HMI_2_City_6_sub_16)
(B,City_3_sub_20_sw_201,3,390.106819435,PowerTransformer_2_City_5_sub_27)
(B,City_21_sub_30_sw_200,2,391.754119357,VoltageMeter_1_City_7_sub_28)
(B,City_3_sub_20_sw_200,2,398.605061115,City_19_sub_10_sw_200)
(B,City_22_sub_32_sw_200,2,400.953465113,VoltageMeter_0_City_8_sub_35)
(B,City_15_sub_25_sw_201,1,406.034006798,CircuitSwitcher_0_City_13_sub_39)
(B,City_18_sub_38_sw_201,1,411.842863103,VoltageMeter_0_City_12_sub_31)
(B,City_13_sub_39_sw_201,1,424.154759971,Breaker_0_City_10_sub_22)
(B,City_1_sub_41_sw_201,0,427.361324096,VoltageMeter_0_City_19_sub_5)
(B,City_9_sub_14_sw_201,0,429.786310427,City_19_sub_2_sw_200)
(B,City_19_sub_3_sw_201,0,433.953780832,CircuitSwitcher_0_City_19_sub_8)
(B,City_19_sub_3_sw_201,0,433.953780832,CircuitSwitcher_0_City_19_sub_8)
(B,City_19_sub_3_sw_201,0,433.953780832,CircuitSwitcher_0_City_19_sub_8)
(B,City_13_sub_39_sw_200,2,446.092502404,CurrentMeter_1_City_6_sub_16)
(B,City_8_sub_35_sw_201,2,451.822076945,HistorianDB_2_City_11_sub_36)
(B,City_8_sub_35_sw_201,2,451.822076945,HistorianDB_2_City_11_sub_36)
(B,City_22_sub_32_sw_200,3,457.150122598,Breaker_1_City_19_sub_9)
(B,City_22_sub_32_sw_200,3,457.150122598,Breaker_1_City_19_sub_9)
(B,City_19_sub_3_sw_201,1,473.086494892,City_9_sub_11_sw_201)
(B,City_11_sub_36_sw_201,2,477.20245524,VoltageMeter_0_City_19_sub_5)
(B,City_23_sub_23_sw_200,1,477.796757642,City_1_sub_41_sw_201)
(B,City_23_sub_23_sw_200,1,477.796757642,City_1_sub_41_sw_201)
(B,City_23_sub_23_sw_200,1,477.796757642,City_1_sub_41_sw_201)
(B,City_6_sub_18_sw_201,2,499.190761494,VoltageMeter_1_City_20_sub_42)
(B,City_6_sub_18_sw_201,2,499.190761494,VoltageMeter_1_City_20_sub_42)
(B,City_1_sub_41_sw_200,1,507.288985359,HMI_2_City_6_sub_16)
(B,City_13_sub_39_sw_201,2,507.965309351,City_19_sub_8_sw_201)
(B,City_15_sub_25_sw_201,2,509.427154402,VoltageMeter_0_City_19_sub_7)
(B,City_1_sub_41_sw_201,3,514.191577517,CurrentMeter_0_City_14_sub_29)
(B,City_7_sub_28_sw_200,1,518.138851763,Breaker_1_City_18_sub_38)
(B,City_23_sub_23_sw_200,3,531.447929707,City_2_sub_26_sw_200)
(B,City_16_sub_37_sw_200,1,531.929690058,Breaker_1_City_20_sub_42)
(B,City_1_sub_41_sw_200,2,536.099428312,HistorianDB_2_City_14_sub_29)
(B,City_14_sub_29_sw_201,2,538.099994928,VoltageMeter_1_City_10_sub_22)
(B,City_19_sub_8_sw_200,0,542.897164632,ScadaServer_2_City_5_sub_27)
(B,City_19_sub_3_sw_201,2,544.231470459,CircuitSwitcher_1_City_19_sub_7)
(B,City_19_sub_3_sw_201,2,544.231470459,CircuitSwitcher_1_City_19_sub_7)
(B,City_19_sub_2_sw_200,0,556.319190484,CurrentMeter_0_City_9_sub_14)
(B,City_19_sub_2_sw_200,0,556.319190484,CurrentMeter_0_City_9_sub_14)
(B,City_23_sub_23_sw_200,2,561.40489357,VoltageMeter_1_City_19_sub_8)
(B,City_23_sub_23_sw_200,2,561.40489357,VoltageMeter_1_City_19_sub_8)
(B,City_23_sub_23_sw_200,2,561.40489357,VoltageMeter_1_City_19_sub_8)
(B,City_23_sub_23_sw_200,2,561.40489357,VoltageMeter_1_City_19_sub_8)
(B,City_18_sub_38_sw_200,2,575.94325656,City_1)
(B,City_18_sub_38_sw_200,2,575.94325656,City_1)
(B,City_12_sub_31_sw_201,1,583.556573242,VoltageMeter_0_City_9_sub_11)
(B,City_19_sub_3_sw_201,3,583.841338795,City_10_sub_21_sw_200)
(B,City_6_sub_18_sw_201,3,586.377195028,City_24)
(B,City_19_sub_4_sw_200,1,589.019553693,Breaker_1_City_21_sub_30)
(B,City_13_sub_39_sw_200,3,592.182660234,City_9_sub_15_sw_201)
(B,City_13_sub_39_sw_200,3,592.182660234,City_9_sub_15_sw_201)
(B,City_11_sub_36_sw_201,3,603.59730876,City_15_sub_25_sw_201)
(B,City_3_sub_20_sw_201,4,604.801407033,City_8)
(B,City_3_sub_20_sw_201,4,604.801407033,City_8)
(B,City_3_sub_20_sw_200,1,615.936415094,VoltageMeter_0_City_10_sub_21)
(B,City_16_sub_37_sw_200,2,626.774833969,Breaker_0_City_9_sub_12)
(B,City_14_sub_29_sw_200,4,634.380064697,CurrentMeter_0_City_19_sub_6)
(B,City_14_sub_29_sw_200,4,634.380064697,CurrentMeter_0_City_19_sub_6)
(B,City_24_sub_33_sw_200,1,640.902763608,ScadaServer_2_City_11_sub_36)
(B,City_21_sub_30_sw_200,3,644.106529933,City_19_sub_5_sw_200)
(B,City_21_sub_30_sw_200,3,644.106529933,City_19_sub_5_sw_200)
(B,City_21_sub_30_sw_200,3,644.106529933,City_19_sub_5_sw_200)
(B,City_13_sub_39_sw_200,4,648.686772812,City_11_sub_36_sw_200)
(B,City_9_sub_14_sw_201,1,652.05685733,City_19_sub_10_sw_200)
(B,City_19_sub_4_sw_200,2,671.175487273,PowerTransformer_2_City_9_sub_12)
(B,City_9_sub_11_sw_201,0,675.785533561,Breaker_0_City_5_sub_27)
(B,City_9_sub_11_sw_201,0,675.785533561,Breaker_0_City_5_sub_27)
(B,City_9_sub_11_sw_201,0,675.785533561,Breaker_0_City_5_sub_27)
(B,City_9_sub_11_sw_201,0,675.785533561,Breaker_0_City_5_sub_27)
(B,City_9_sub_14_sw_200,1,701.909133929,CircuitSwitcher_1_City_5_sub_27)
(B,City_9_sub_14_sw_200,1,701.909133929,CircuitSwitcher_1_City_5_sub_27)
(B,City_9_sub_14_sw_200,1,701.909133929,CircuitSwitcher_1_City_5_sub_27)
(B,City_19_sub_3_sw_201,4,718.570216455,HistorianDB_2_City_24_sub_33)
(B,City_19_sub_3_sw_201,4,718.570216455,HistorianDB_2_City_24_sub_33)
(B,City_19_sub_3_sw_201,4,718.570216455,HistorianDB_2_City_24_sub_33)
(B,City_3_sub_20_sw_200,3,739.80229053,PowerTransformer_2_City_11_sub_36)
(B,City_3_sub_20_sw_200,3,739.80229053,PowerTransformer_2_City_11_sub_36)
(B,City_3_sub_20_sw_200,3,739.80229053,PowerTransformer_2_City_11_sub_36)
(B,City_3_sub_20_sw_200,3,739.80229053,PowerTransformer_2_City_11_sub_36)
(B,City_3_sub_20_sw_200,3,739.80229053,PowerTransformer_2_City_11_sub_36)
(B,City_23_sub_23_sw_200,3,759.158474286,PowerTransformer_2_City_5_sub_27)
(B,City_23_sub_23_sw_200,3,759.158474286,PowerTransformer_2_City_5_sub_27)
(B,City_23_sub_23_sw_200,3,759.158474286,PowerTransformer_2_City_5_sub_27)
(B,City_10_sub_21_sw_201,2,771.797449932,Breaker_0_City_9_sub_15)
(B,City_10_sub_21_sw_201,2,771.797449932,Breaker_0_City_9_sub_15)
(B,City_10_sub_21_sw_201,2,771.797449932,Breaker_0_City_9_sub_15)
(B,City_15_sub_25_sw_201,3,801.583635239,HistorianDB_2_City_24_sub_33)
(B,City_15_sub_25_sw_201,3,801.583635239,HistorianDB_2_City_24_sub_33)
(B,City_15_sub_25_sw_201,3,801.583635239,HistorianDB_2_City_24_sub_33)
(B,City_15_sub_25_sw_201,3,801.583635239,HistorianDB_2_City_24_sub_33)
(B,City_15_sub_25_sw_201,3,801.583635239,HistorianDB_2_City_24_sub_33)
(B,City_7_sub_28_sw_200,2,821.214539358,Breaker_1_City_10_sub_22)
(B,City_19_sub_4_sw_200,2,825.019326728,PowerTransformer_2_City_10_sub_21)
(B,City_19_sub_7_sw_201,0,839.778142375,City_19_sub_1_sw_200)
(B,City_23_sub_23_sw_200,0,839.993826708,CurrentMeter_0_City_5_sub_27)
(B,City_23_sub_23_sw_200,0,839.993826708,CurrentMeter_0_City_5_sub_27)
(B,City_19_sub_7_sw_201,1,856.629378086,HistorianDB_2_City_8_sub_35)
(B,City_13_sub_39_sw_201,3,857.496444914,CurrentMeter_1_City_20_sub_42)
(B,City_22_sub_32_sw_200,4,872.405759497,CurrentMeter_1_City_4_sub_34)
(B,City_22_sub_32_sw_200,4,872.405759497,CurrentMeter_1_City_4_sub_34)
(B,City_22_sub_32_sw_200,4,872.405759497,CurrentMeter_1_City_4_sub_34)
(B,City_14_sub_29_sw_201,3,897.222215889,CurrentMeter_1_City_18_sub_38)
(B,City_14_sub_29_sw_201,3,897.222215889,CurrentMeter_1_City_18_sub_38)
(B,City_18_sub_38_sw_201,2,927.193507245,CircuitSwitcher_0_City_19_sub_6)
(B,City_19_sub_2_sw_200,1,940.198660241,ScadaServer_2_City_9_sub_14)
(B,City_23_sub_23_sw_200,4,942.304201597,VoltageMeter_0_City_16_sub_37)
(B,City_23_sub_23_sw_200,4,942.304201597,VoltageMeter_0_City_16_sub_37)
(B,City_6_sub_18_sw_201,4,963.585388833,HMI_2_City_9_sub_13)
(B,City_6_sub_18_sw_201,4,963.585388833,HMI_2_City_9_sub_13)
(B,City_6_sub_18_sw_201,4,963.585388833,HMI_2_City_9_sub_13)
(B,City_6_sub_18_sw_201,4,963.585388833,HMI_2_City_9_sub_13)
(B,City_8_sub_35_sw_201,3,1025.64004136,VoltageMeter_1_City_19_sub_9)
(B,City_12_sub_31_sw_201,2,1031.18042272,VoltageMeter_0_City_19_sub_10)
(B,City_12_sub_31_sw_201,2,1031.18042272,VoltageMeter_0_City_19_sub_10)
(B,City_12_sub_31_sw_201,2,1031.18042272,VoltageMeter_0_City_19_sub_10)
(B,City_12_sub_31_sw_201,2,1031.18042272,VoltageMeter_0_City_19_sub_10)
(B,City_16_sub_37_sw_201,1,1058.11041991,CircuitSwitcher_1_City_19_sub_5)
(B,City_16_sub_37_sw_201,1,1058.11041991,CircuitSwitcher_1_City_19_sub_5)
(B,City_13_sub_39_sw_201,0,1062.73833335,HistorianDB_2_City_22_sub_32)
(B,City_13_sub_39_sw_201,0,1062.73833335,HistorianDB_2_City_22_sub_32)
(B,City_2_sub_26_sw_200,1,1083.98276053,VoltageMeter_0_City_8_sub_35)
(B,City_1_sub_41_sw_201,4,1087.11392598,CircuitSwitcher_0_City_19_sub_1)
(B,City_1_sub_41_sw_201,4,1087.11392598,CircuitSwitcher_0_City_19_sub_1)
(B,City_1_sub_41_sw_201,4,1087.11392598,CircuitSwitcher_0_City_19_sub_1)
(B,City_1_sub_41_sw_201,4,1087.11392598,CircuitSwitcher_0_City_19_sub_1)
(B,City_9_sub_13_sw_200,1,1177.71410018,HistorianDB_2_City_4_sub_34)
(B,City_9_sub_13_sw_200,1,1177.71410018,HistorianDB_2_City_4_sub_34)
(B,City_1_sub_41_sw_201,1,1209.70727201,HistorianDB_2_City_16_sub_37)
(B,City_1_sub_41_sw_201,1,1209.70727201,HistorianDB_2_City_16_sub_37)
(B,City_1_sub_41_sw_201,1,1209.70727201,HistorianDB_2_City_16_sub_37)
(B,City_1_sub_41_sw_201,1,1209.70727201,HistorianDB_2_City_16_sub_37)
(B,City_1_sub_41_sw_201,1,1209.70727201,HistorianDB_2_City_16_sub_37)
(B,City_1_sub_41_sw_201,1,1209.70727201,HistorianDB_2_City_16_sub_37)
(B,City_19_sub_8_sw_200,1,1257.00957009,HistorianDB_2_City_20_sub_42)
(B,City_19_sub_8_sw_200,1,1257.00957009,HistorianDB_2_City_20_sub_42)
(B,City_19_sub_8_sw_200,1,1257.00957009,HistorianDB_2_City_20_sub_42)
(B,City_19_sub_8_sw_200,1,1257.00957009,HistorianDB_2_City_20_sub_42)
(B,City_19_sub_8_sw_200,1,1257.00957009,HistorianDB_2_City_20_sub_42)
(B,City_19_sub_8_sw_200,1,1257.00957009,HistorianDB_2_City_20_sub_42)
(B,City_9_sub_12_sw_201,2,1336.37687393,CurrentMeter_0_City_9_sub_11)
(B,City_9_sub_12_sw_201,2,1336.37687393,CurrentMeter_0_City_9_sub_11)
(B,City_9_sub_12_sw_201,2,1336.37687393,CurrentMeter_0_City_9_sub_11)
(B,City_18_sub_38_sw_200,0,1402.71000726,HMI_2_City_8_sub_35)
(B,City_18_sub_38_sw_200,0,1402.71000726,HMI_2_City_8_sub_35)
(B,City_18_sub_38_sw_200,0,1402.71000726,HMI_2_City_8_sub_35)
(B,City_18_sub_38_sw_200,3,1444.80659539,HMI_2_City_19_sub_3)
(B,City_18_sub_38_sw_200,3,1444.80659539,HMI_2_City_19_sub_3)
(B,City_18_sub_38_sw_200,3,1444.80659539,HMI_2_City_19_sub_3)
(B,City_18_sub_38_sw_200,3,1444.80659539,HMI_2_City_19_sub_3)
(B,City_18_sub_38_sw_200,3,1444.80659539,HMI_2_City_19_sub_3)
(B,City_18_sub_38_sw_200,3,1444.80659539,HMI_2_City_19_sub_3)
(B,City_18_sub_38_sw_200,3,1444.80659539,HMI_2_City_19_sub_3)
(B,City_18_sub_38_sw_200,3,1444.80659539,HMI_2_City_19_sub_3)
(B,City_18_sub_38_sw_200,3,1444.80659539,HMI_2_City_19_sub_3)
(B,City_18_sub_38_sw_200,3,1444.80659539,HMI_2_City_19_sub_3)
(B,City_18_sub_38_sw_200,3,1444.80659539,HMI_2_City_19_sub_3)
(B,City_18_sub_38_sw_200,3,1444.80659539,HMI_2_City_19_sub_3)
(B,City_18_sub_38_sw_200,3,1444.80659539,HMI_2_City_19_sub_3)
(B,City_18_sub_38_sw_200,3,1444.80659539,HMI_2_City_19_sub_3)
(B,City_18_sub_38_sw_200,3,1444.80659539,HMI_2_City_19_sub_3)
(B,City_18_sub_38_sw_200,3,1444.80659539,HMI_2_City_19_sub_3)
(B,City_18_sub_38_sw_200,3,1444.80659539,HMI_2_City_19_sub_3)
(B,City_18_sub_38_sw_200,3,1444.80659539,HMI_2_City_19_sub_3)
(B,City_18_sub_38_sw_200,3,1444.80659539,HMI_2_City_19_sub_3)
(B,City_18_sub_38_sw_200,3,1444.80659539,HMI_2_City_19_sub_3)
(B,City_18_sub_38_sw_200,3,1444.80659539,HMI_2_City_19_sub_3)
(B,City_18_sub_38_sw_200,3,1444.80659539,HMI_2_City_19_sub_3)
(B,City_18_sub_38_sw_200,3,1444.80659539,HMI_2_City_19_sub_3)
(B,City_18_sub_38_sw_200,3,1444.80659539,HMI_2_City_19_sub_3)
(B,City_18_sub_38_sw_200,3,1444.80659539,HMI_2_City_19_sub_3)
(B,City_18_sub_38_sw_200,3,1444.80659539,HMI_2_City_19_sub_3)
(B,City_18_sub_38_sw_200,3,1444.80659539,HMI_2_City_19_sub_3)
(B,City_18_sub_38_sw_200,3,1444.80659539,HMI_2_City_19_sub_3)
(B,City_18_sub_38_sw_200,3,1444.80659539,HMI_2_City_19_sub_3)
(B,City_18_sub_38_sw_200,3,1444.80659539,HMI_2_City_19_sub_3)
(B,City_18_sub_38_sw_200,3,1444.80659539,HMI_2_City_19_sub_3)
(B,City_1_sub_41_sw_200,3,2311.01816471,CurrentMeter_1_City_13_sub_39)
(B,City_1_sub_41_sw_200,3,2311.01816471,CurrentMeter_1_City_13_sub_39)
(B,City_1_sub_41_sw_200,3,2311.01816471,CurrentMeter_1_City_13_sub_39)
(B,City_1_sub_41_sw_200,3,2311.01816471,CurrentMeter_1_City_13_sub_39)
(B,City_1_sub_41_sw_200,3,2311.01816471,CurrentMeter_1_City_13_sub_39)
(B,City_1_sub_41_sw_200,3,2311.01816471,CurrentMeter_1_City_13_sub_39)
(B,City_1_sub_41_sw_200,3,2311.01816471,CurrentMeter_1_City_13_sub_39)
(B,City_1_sub_41_sw_200,3,2311.01816471,CurrentMeter_1_City_13_sub_39)
(B,City_1_sub_41_sw_200,3,2311.01816471,CurrentMeter_1_City_13_sub_39)
(B,City_1_sub_41_sw_200,3,2311.01816471,CurrentMeter_1_City_13_sub_39)
(B,City_1_sub_41_sw_200,3,2311.01816471,CurrentMeter_1_City_13_sub_39)
(B,City_1_sub_41_sw_200,3,2311.01816471,CurrentMeter_1_City_13_sub_39)
(B,City_1_sub_41_sw_200,3,2311.01816471,CurrentMeter_1_City_13_sub_39)
(B,City_1_sub_41_sw_200,3,2311.01816471,CurrentMeter_1_City_13_sub_39)
(B,City_1_sub_41_sw_200,3,2311.01816471,CurrentMeter_1_City_13_sub_39)
(B,City_1_sub_41_sw_200,3,2311.01816471,CurrentMeter_1_City_13_sub_39)
(B,City_1_sub_41_sw_200,3,2311.01816471,CurrentMeter_1_City_13_sub_39)
(B,City_1_sub_41_sw_200,3,2311.01816471,CurrentMeter_1_City_13_sub_39)
(B,City_1_sub_41_sw_200,3,2311.01816471,CurrentMeter_1_City_13_sub_39)
(B,City_1_sub_41_sw_200,3,2311.01816471,CurrentMeter_1_City_13_sub_39)
(B,City_1_sub_41_sw_200,3,2311.01816471,CurrentMeter_1_City_13_sub_39)
(B,City_1_sub_41_sw_200,3,2311.01816471,CurrentMeter_1_City_13_sub_39)
(B,City_1_sub_41_sw_200,3,2311.01816471,CurrentMeter_1_City_13_sub_39)
(B,City_1_sub_41_sw_200,3,2311.01816471,CurrentMeter_1_City_13_sub_39)
(B,City_1_sub_41_sw_200,3,2311.01816471,CurrentMeter_1_City_13_sub_39)
(B,City_1_sub_41_sw_200,3,2311.01816471,CurrentMeter_1_City_13_sub_39)
(B,City_1_sub_41_sw_200,3,2311.01816471,CurrentMeter_1_City_13_sub_39)
