Running online algorithm on topology 2_Agis_result.graphml
38239424.0
38239424.0
37829952.0
38239424.0
37829952.0
37829952.0
38239424.0
38239424.0
38239424.0
38239424.0
100000000.0
38239424.0
37829952.0
38239424.0
38239424.0
38239424.0
37829952.0
7109952.0
37829952.0
37829952.0
38239424.0
38239424.0
38239424.0
37829952.0
38239424.0
38239424.0
37829952.0
37829952.0
38239424.0
38239424.0
38239424.0
38239424.0
38239424.0
38239424.0
38239424.0
7109952.0
37829952.0
38239424.0
37829952.0
37829952.0
38239424.0
37829952.0
38239424.0
37829952.0
37829952.0
38239424.0
45000000.0
38239424.0
37829952.0
7109952.0
38239424.0
37829952.0
37829952.0
38239424.0
38239424.0
38239424.0
38239424.0
37829952.0
37829952.0
37829952.0
37829952.0
38239424.0
100000000.0
37829952.0
37829952.0
45000000.0
38239424.0
37829952.0
37829952.0
7109952.0
37829952.0
37829952.0
38239424.0
37829952.0
37829952.0
38239424.0
7109952.0
37829952.0
38239424.0
38239424.0
100000000.0
38239424.0
38239424.0
37829952.0
38239424.0
38239424.0
38239424.0
72049856.0
37829952.0
37829952.0
38239424.0
38239424.0
37829952.0
38239424.0
37829952.0
72049856.0
37829952.0
38239424.0
38239424.0
38239424.0
38239424.0
38239424.0
37829952.0
38239424.0
38239424.0
38239424.0
38239424.0
38239424.0
72049856.0
38239424.0
38239424.0
7109952.0
37829952.0
37829952.0
37829952.0
38239424.0
37829952.0
38239424.0
38239424.0
38239424.0
37829952.0
37829952.0
38239424.0
37829952.0
37829952.0
37829952.0
7109952.0
38239424.0
37829952.0
37829952.0
37829952.0
